Сахар-сырец	0,00	0,00	95,30	362,00	1,2
Сахар-песок	0,00	0,00	99,80	379,00	1,1
Сахар-рафинад	0,00	0,00	99,90	379,00	1,1
Соль поваренная	0,00	0,00	0,00	0,00	1,00
Уксус 3%-ный	0,00	0,00	0,00	0,00	2,00
Масло кукурузное	0,00	99,90	0,00	899,00	3,2
Масло кунжутное	0,00	99,90	0,00	899,00	3,2
Масло оливковое	0,00	99,80	0,00	898,00	3,2
Масло подсолнечное	0,00	99,90	0,00	899,00	3,2
Масло соевое	0,00	99,90	0,00	899,00	3,2
"Жир кулинарный ""Прима"""	0,00	99,70	0,00	897,00	4,00
Жир кондитерский	0,00	99,70	0,00	897,00	4,00
Жир бараний топленый	0,00	99,70	0,00	897,00	4,00
Жир свиной топленый	0,00	99,70	0,00	897,00	4,00
Жир говяжий топленый	0,00	99,70	0,00	897,00	4,00
Жир тресковый	0,00	100,00	0,00	900,00	3,4
Водка 40%об,	0,00	0,00	0,10	235,00	1,3
"Коньяк ""3 звёздочки"" 40%об,"	0,00	0,00	1,5	239,00	1,3
"Настойка ""Старка"" 43%об,"	0,00	0,00	0,90	255,00	1,3
"Наливка ""Сливянка"" 18%об,"	0,00	0,00	30,00	216,00	1,3
"Ликёр ""Вишнёвый"" 25%об"	0,00	0,00	45,00	313,00	1,4
"Пунш ""Чёрносмородиновый""17%об"	0,00	0,00	39,00	244,00	1,4
Шиповниковый сок	0,10	0,00	17,6	70,00	1,00
Крахмал картофельный	0,10	сл,	79,60	327,00	
Карамель фруктовая	0,10	0,10	92,20	357,00	2,00
Алыча	0,20		6,9	27,00	2,5
Компот из яблок	0,20	0,00	23,7	85,00	1,2
Яблоки в сиропе	0,20	0,00	13,00	50,00	2,00
Квас хлебный 0,8% об,	0,20	0,00	5,00	25,00	1,2
Вино столовое белое 11% об,	0,20	0,00	0,20	65,00	1,3
Шампанское полусухое 12%об,	0,20	0,00	5,00	88,00	1,3
Смородина белая	0,30		11,7	38,00	2,3
Виноградный сок	0,30	0,00	14,00	54,00	1,00
Гранатовый сок	0,30	0,00	14,5	64,00	1,00
Грейпфрутовый сок	0,30	0,00	8,00	36,00	1,00
Персиковый сок	0,30	0,00	17,2	66,00	1,00
Сливовый сок	0,30	0,00	16,1	66,00	1,00
Варенье из клубники	0,30	0,00	72,10	271,00	2,00
Масло топленое	0,30	98,00	0,60	887,00	3,2
Маргарин столовый молочный	0,30	82,00	1,00	743,00	3,2
Вино столовое красное 12% об,	0,30	0,00	0,20	71,00	1,3
Ананас	0,40	0,20	10,6	49,00	2,1
Груша	0,40	0,30	10,9	42,00	2,3
Яблоки	0,40	0,40	11,8	45,00	2,4
Яблоки зимние	0,40	0,40	11,8	45,00	2,4
Варенье из сливы	0,40	0,00	73,70	281,00	2,00
Варенье из яблок	0,40	0,00	66,80	254,00	2,00
Джем из абрикосов	0,40	0,00	69,50	265,00	2,00
Повидло яблочное	0,40	0,00	66,00	250,00	2,00
Мармелад фруктово-ягодный	0,40	сл,	76,60	293,00	2,00
Хурма	0,50		16,8	53,00	3,00
Клюква	0,50		6,8	26,00	2,3
Абрикосовый сок	0,50	0,00	14,00	56,00	1,00
Айвовый сок	0,50	0,00	10,6	45,00	1,00
Черносмородиновый сок	0,50	0,00	7,9	40,00	1,00
Яблочный сок	0,50	0,00	9,1	38,00	1,00
Компот из абрикосов	0,50	0,00	21,4	85,00	1,2
Пастила	0,50	сл,	80,80	310,00	2,2
Масло сливочное несолёное	0,50	82,50	0,80	748,00	3,2
"Маргарин ""Экстра"""	0,50	82,00	1,00	744,00	3,2
Вино десертное белое 16% об,	0,50	0,00	16,00	153,00	1,3
Кабачки	0,60	0,30	5,2	23,00	2,3
Патиссоны	0,60	0,10	5,4	19,00	3,1
Дыня	0,60		10,3	38,00	2,4
Айва	0,60	0,50	9,8	40,00	3,4
Виноград	0,60	0,20	16,8	65,00	1,4
Смородина красная	0,60	0,20	11,00	39,00	2,3
Лимонный сок	0,60	0,00	2,5	26,00	1,00
Варенье из малины	0,60	0,00	72,60	275,00	2,00
Джем из чёрной смородины	0,60	0,00	69,20	265,00	2,00
Пюре яблочное	0,60	0,10	20,00	78,00	2,00
Пиво жигулевское 2,8% об,	0,60	0,00	4,8	37,00	1,3
Ревень (черешки)	0,70	0,10	4,3	16,00	3,00
Арбуз	0,70	0,20	10,9	38,00	2,3
Инжир	0,70	0,20	13,7	49,00	2,2
Шелковица	0,70		13,6	52,00	2,4
Брусника	0,70	0,50	9,6	43,00	2,3
Крыжовник	0,70	0,20	12,00	43,00	2,3
Апельсиновый сок	0,70	0,00	13,00	54,00	1,00
Вишневий сок	0,70	0,00	10,2	47,00	1,00
Капуста краснокочанная	0,80		7,6	24,00	3,4
Огурцы	0,80	0,10	3,8	14,00	2,4
Огурцы солёные	0,80	0,10	2,4	13,00	4,00
Вишня	0,80	0,50	11,3	52,00	2,00
Слива	0,80		11,2	43,00	2,4
Мандарин	0,80	0,30	9,2	40,00	2,00
Земляника	0,80	0,40	11,2	34,00	2,2
Малина	0,80	0,30	14,1	42,00	1,5
Морошка	0,80		9,8	28,00	2,3
Мандариновый сок	0,80	0,00	9,2	43,00	1,00
Мёд натуральный	0,80	0,00	80,30	314,00	1,2
Зефир	0,80	сл,	78,50	304,00	2,00
Сыворотка творожная	0,80	0,20	3,5	20,00	1,3
Масло крестьянское несолёное	0,80	72,50	1,3	661,00	3,2
Абрикосы	0,90	0,10	10,8	41,00	2,4
Гранат	0,90		13,9	52,00	2,3
Персики	0,90	0,10	11,3	46,00	2,3
Апельсин	0,90	0,20	10,3	40,00	2,00
Грейпфрут	0,90	0,20	8,7	35,00	2,00
Лимон	0,90	0,10	4,9	33,00	1,3
Облепиха	0,90	2,5	10,2	52,00	2,3
Морская капуста	0,90	0,20	3,00	5,00	2,00
Пшеница твёрдая	13,00	2,5	66,60	301,00	3,4
Творог жирный	14,00	18,00	2,8	232,00	2,5
Баранья грудинка	14,00	25,8		288,00	3,3
"Консервы ""Судак в томате"""	14,00	5,3	3,7	119,00	3,00
Свиная тазобедренная часть	15,00	27,2		305,00	4,00
Кофе растворимый	15,00	3,6		199,00	
Творог мягкий диетический	16,00	11,00	1,00	170,00	2,4
Сердце говяжье	16,00	3,5		96,00	3,1
Язык говяжий	16,00	12,1		173,00	3,3
Карп	16,00	5,3		112,00	3,1
Треска	16,00	0,60		69,00	3,1
Краб камчатский (мясо)	16,00	3,6		96,00	2,3
Баранья тазобедренная часть	17,00	14,4		198,00	3,3
Сельдь атлантическая солёная	17,00	8,5		145,00	4,00
Оливки консервированные	18,00	16,3	9,4	175,00	3,1
Творог нежирный	18,00	0,60	1,8	88,00	2,4
Вобла свежая	18,00	2,6		95,00	3,1
Скумбрия атлантическая	18,00	13,2		191,00	3,1
Кальмар (мясо)	18,00	4,2		110,00	2,3
Буйволятина 1 категории	19,00	13,2		195,00	3,3
"Сыр ""Рокфор"""	20,00	28,00		337,00	3,4
Мясо яка	20,00	3,5		112,00	3,3
Чай черный байховый	20,00	5,1	15,00	99,00	
Фасоль	21,00	2,00	54,50	292,00	3,00
Желудок куриный	21,00	6,4	0,60	130,00	3,2
Горбуша	21,00	7,00		147,00	3,1
"Сыр плавленый ""Российский"""	22,00	27,00		340,00	3,2
Горох лущенный	23,00	1,6	57,70	323,00	3,2
Сливки сухие	23,00	42,70	26,3	579,00	2,4
"Сыр ""Российский"""	23,00	29,00		360,00	3,2
Сыр колбасный копчёный	23,00	19,00		271,00	3,4
Чечевица	24,00	1,1	53,70	284,00	3,00
Колбаса сырокопченая сервелат	24,00	40,50		461,00	4,2
Молоко сухое цельное	26,00	25,00	37,50	476,00	2,3
"Сыр ""Голландский"""	26,00	26,8		352,00	3,2
"Сыр ""Пошехонский"""	26,00	26,5		350,00	3,2
Треска горячего копчения	26,00	1,2		115,00	4,3
"Сыр ""Вырусский"""	29,00	15,00		258,00	3,2
Арахис сушеный	29,20	50,20	10,8	611,00	3,1
"Сыр ""Прибалтийский"""	30,00	9,00		209,00	3,2
Икра горбуши зернистая	31,20	11,7		230,00	2,3
Икра кеты зернистая (красная)	31,60	13,8		251,00	2,3
Лещ горячего копчения	32,80	4,5		172,00	4,3
Соя	34,90	17,3	26,5	332,00	3,1
Зелёный горошек	35,00	0,40	43,00	305,00	3,00
Подосиновики сушеные	35,40	5,4	39,70	239,00	2,3
Икра осетровая паюсная	36,00	10,2		236,00	2,3
Мука соевая	36,50	18,6	17,6	374,00	3,2
Порошок горчичный	37,10	11,1	5,9	271,00	
Лещ каспийский вяленый	42,00	5,9		221,00	4,3
Яичный порошок	46,00	37,30	4,5	542,00	
Снеток солено-сушеный	46,30	8,8		264,00	4,1
Вобла каспийская вяленая	46,40	5,5		235,00	4,3
Мука соевая обезжиренная	48,90	1,00	24,5	292,00	3,2
Желатин пищевой	87,20	0,40	0,70	355,00	
Тыква	1,00	0,10	5,9	25,00	3,1
Кизил	1,00		10,5	44,00	3,3
Голубика	1,00		8,2	35,00	2,3
Смородина чёрная	1,00	0,20	11,5	38,00	2,3
Томатный сок	1,00	0,00	3,7	19,00	1,00
Свекольный сок	1,00	0,00	9,9	42,00	1,00
Паста яблочная с сахаром	1,00	0,00	36,90	137,00	2,00
Крахмал кукурузный	1,00	0,60	85,20	359,00	
Сыворотка подсырная	1,00	0,10	4,00	21,00	1,3
"Консервы ""Морская капуста"""	1,00	0,20	0,80	8,00	2,3
Томаты	1,1	0,20	5,00	23,00	2,00
Черешня	1,1	0,40	11,5	50,00	2,00
Черника	1,1	0,60	11,00	44,00	2,3
Томаты с кожицей	1,1	сл,	4,2	20,00	2,3
Морковный сок	1,1	0,10	6,4	28,00	1,00
"Пиво ""Портер"" 5%об,"	1,1	0,00	8,3	64,00	1,3
Баклажаны	1,2	0,10	7,1	24,00	3,3
Брюква	1,2	0,10	8,9	34,00	3,1
Редис	1,2	0,10	4,6	21,00	3,1
Фасоль стручковая	1,2	0,10	3,1	16,00	3,00
Лук зелёный	1,3		4,6	19,00	3,00
Морковь	1,3	0,10	9,3	34,00	3,00
Перец зелёный сладкий	1,3	сл,	7,2	26,00	3,00
Перец красный сладкий	1,3	сл,	7,2	27,00	3,00
Сельдерей (корень)	1,3	0,30	7,1	32,00	3,3
Лук репчатый	1,4		10,4	41,00	3,1
Пастернак (корень)	1,4	сл,	12,9	47,00	3,3
Рябина	1,4	0,10	11,8	43,00	3,00
Шпик свиной (без шкурки)	1,4	92,80		841,00	4,3
Шпик свиной солёный	1,4	90,00		816,00	4,3
Петрушка (корень)	1,5	0,60	11,8	53,00	3,3
Репа	1,5	сл,	6,7	27,00	4,00
Салат	1,5	0,20	3,1	17,00	2,3
Свекла	1,5	0,10	11,8	42,00	3,00
Щавель	1,5	сл,	4,00	19,00	2,4
Бананы	1,5	0,10	21,8	89,00	3,00
Черноплодная рябина	1,5	0,10	13,6	52,00	3,00
Шиповник свежий	1,6		14,00	51,00	3,3
Лисички свежие	1,6	1,1	2,2	20,00	2,3
Конфеты фруктовые	1,6	8,6	75,80	369,00	2,00
Икра из баклажан	1,7	13,3	7,1	148,00	2,4
Капуста белокочанная	1,8	0,10	6,8	27,00	3,00
Капуста квашеная	1,8	0,10	4,4	19,00	4,1
Изюм	1,8	0,00	72,20	262,00	2,00
Баклажаны в томатном соусе	1,8	8,00	10,00	113,00	3,00
Карамель шоколадно-ореховая	1,8	9,2	86,80	420,00	2,3
Редька	1,9	0,20	8,00	35,00	3,4
Спаржа	1,9	0,10	4,4	21,00	3,00
Рыжики свежие	1,9	0,80	2,7	17,00	2,3
Овес	10,00	6,2	57,80	250,00	3,2
Ячменевая	10,00	1,3	71,70	324,00	2,3
Мука ячменная	10,00	1,6	57,60	284,00	3,2
Сливки сухие высокожирные	10,00	75,00	10,00	753,00	3,00
Грудинка свиная копчено-запеченная	10,00	52,70		514,00	4,3
Сардельки свиные	10,1	31,60	1,9	332,00	3,3
Корейка свиная сырокопченая	10,2	47,40		475,00	4,3
Кукуруза	10,3	4,9	67,50	325,00	3,00
Ячмень	10,3	2,4	62,40	264,00	3,4
Манная	10,3	1,00	73,30	328,00	2,00
Мука пшеничная, в/с	10,3	1,1	70,60	334,00	3,3
Макаронные изделия, в/с	10,4	1,1	74,90	337,00	3,2
Печенье сдобное	10,4	5,2	76,80	458,00	2,4
Баранки простые	10,4	1,3	64,30	317,00	2,3
Мука пшеничная, 1 сорт	10,6	1,3	70,10	331,00	3,2
Фарш свиной сосисочный	10,6	20,4	4,4	244,00	3,1
Мука ржаная обойная	10,7	1,9	58,60	293,00	3,2
Сушки простые	10,7	1,6	70,20	341,00	2,3
Пельмени мясные	10,7	15,5	16,3	255,00	3,3
Гречиха	10,8	3,2	68,90	295,00	3,3
Сухари дорожные	10,9	1,5	69,60	341,00	2,3
Овсяная	11,00	6,1	65,40	303,00	3,00
Геркулес	11,00	6,2	65,70	305,00	2,00
Сосиски молочные	11,00	23,9	1,6	266,00	3,00
Яйцо куриное (белок)	11,1				2,2
Пшеница мягкая озимая	11,2	2,1	68,70	290,00	3,4
Кукуруза сахарная	11,2	4,5	40,40	245,00	2,4
Просо	11,2	3,9	70,50	311,00	3,2
Макароны яичные	11,3	2,1	68,10	345,00	3,2
Сухари армейские	11,3	2,00	60,00	308,00	2,3
Творожная масса сладкая	11,3	20,00	15,4	286,00	2,5
Сардельки говяжьи	11,4	18,2	1,5	215,00	3,00
Толокно	11,5	5,8	68,30	306,00	2,00
Пшенная	11,5	3,3	69,30	348,00	3,00
"Пшеничная ""Полтавская"""	11,5	1,3	70,60	316,00	2,00
Мука пшеничная обойная	11,5	2,2	58,70	298,00	3,2
Макароны молочные	11,5	2,9	67,10	345,00	3,2
Халва подсолнечная	11,6	29,7	54,00	523,00	3,3
Паштет печёночный	11,6	28,9	2,5	317,00	3,00
Мука пшеничная, 2 сорт	11,7	1,8	64,30	324,00	3,2
Свинина жирная	11,7	49,30		491,00	4,3
Колбаса вареная чайная	11,7	18,4	1,9	216,00	3,00
Драже ореховое	11,9	38,30	44,20	552,00	2,3
Яйцо перепелиное	11,9	13,1	0,60	168,00	2,2
Колбаса вареная диабетическая	12,1	22,8		254,00	3,00
Вымя говяжье	12,3	13,7		175,00	3,3
Гречневая	12,6	3,3	68,00	335,00	3,00
Дрожжи прессованные	12,7	2,7	8,3	85,00	
Халва тахинная	12,7	29,9	50,60	516,00	3,3
Яйцо куриное	12,7	11,5	0,70	157,00	2,2
Колбаса вареная докторская	12,8	22,2	1,5	257,00	3,00
Мясной хлеб ветчинный	12,9	21,8	2,00	256,00	3,5
Мойва весенняя	13,1	7,1		116,00	3,1
Какао тёртое	13,5	54,00	18,6	610,00	2,00
Колбасный фарш отдельный	13,6	23,7	2,9	279,00	3,1
Мойва осенняя	13,6	18,1		217,00	3,1
"Паста""Океан"""	13,6	4,2		92,00	3,00
Свинина корейка	13,7	36,50		384,00	4,3
Колбаса вареная телячья	13,8	28,3		310,00	3,00
Фарш колбасный куриный	13,9	14,9	1,4	193,00	3,00
Кофе жареный в зернах	13,9	14,4	15,6	223,00	
Свинина мясная	14,3	33,00		357,00	4,00
Окорок свиной вареный	14,3	25,6		288,00	4,00
Угорь	14,5	30,5		333,00	3,1
"Консервы ""Горбуша в томате"""	14,5	5,1	6,9	132,00	3,00
Брынза из овечьего молока	14,6	25,5		298,00	3,00
"Консервы ""Ставрида в томате"""	14,8	2,3	7,3	110,00	3,00
Свинина тушеная	14,9	32,20		349,00	3,3
Отруби пшеничные	15,1	3,8	33,50	191,00	3,00
Килька пряного посола	15,1	8,9		141,00	3,3
Почки говяжьи	15,2	2,8		86,00	3,1
Гуси 1 категории	15,2	39,00		412,00	3,4
Грецкие орехи	15,6	65,20	10,2	648,00	3,00
Баранина 1 категории	15,6	16,3		209,00	3,3
"Консервы ""Ставрида в масле"""	15,6	27,4		309,00	3,3
Утки 1 категории	15,8	38,00		405,00	3,3
Сердце куриное	15,8	10,3	0,80	159,00	3,2
Баранья корейка	15,9	21,5		255,00	3,3
Язык свиной	15,9	16,00		208,00	3,3
Минтай	15,9	0,90		104,00	3,1
Фундук	16,1	66,90	9,9	704,00	3,00
Колбаса п/копчёная краковская	16,2	44,60		466,00	4,00
Яйцо куриное (желток)	16,2	31,20	1,00	352,00	2,2
Говяжья грудинка	16,3	18,7		233,00	3,3
Паштет мясной	16,4	23,3	0,40	277,00	3,00
Осетр	16,4	10,9		82,00	3,1
"Консервы натуральные ""Скумбрия"""	16,4	21,4		258,00	3,00
Колбаса п/копчёная украинская	16,5	34,40		376,00	4,00
Творог полужирный	16,7	9,00	2,00	159,00	2,5
Моллюск рапана	16,7	1,1		77,00	2,1
Говядина тушеная	16,8	17,00		220,00	3,3
Килька балтийская	17,1	7,6		137,00	4,00
Килька балтийская солёная	17,1	7,6		137,00	4,3
Лещ	17,1	4,1		105,00	3,1
Ставрида хол, копчения	17,1	2,8		94,00	4,3
Колбаса вареная подмосковская	17,2	11,6	1,8	180,00	3,2
Пикша	17,2	0,20		71,00	3,1
Колбаса в/копчёная любительская	17,3	39,00		309,00	3,5
"Консервы в масле ""Шпроты"""	17,4	32,40	0,40	363,00	3,3
Ветчина особая	17,6	6,2		126,00	3,4
Сельдь жирная свежая	17,7	19,5		246,00	3,1
"560Консервы натуральные ""креветки"""	17,8	1,1		81,00	3,00
Брынза из коровьего молока	17,9	20,1		260,00	3,00
Печень говяжья	17,9	3,7		105,00	3,1
Куры 1 категории	18,2	18,4	0,70	241,00	3,2
Перепёлки 1 категории	18,2	17,3	0,40	230,00	3,2
Окунь морской свежий	18,2	3,3		220,00	3,1
Судак	18,4	1,1		84,00	3,1
Щука	18,4	1,1		84,00	3,1
Окунь речной	18,5	0,90		103,00	3,1
Ставрида океаническая	18,5	4,5		114,00	3,1
Миндаль сладкий	18,6	57,70	16,2	645,00	2,3
Говядина 1 категории	18,6	16,00		218,00	3,3
Сайра крупная	18,6	20,8		262,00	3,1
"Консервы натуральные ""крабы"""	18,7	1,1		85,00	3,00
Печень свиная	18,8	3,8		109,00	3,1
Верблюжатина 1 категории	18,9	13,3		160,00	3,3
Креветка (мясо)	18,9	2,2		95,00	2,3
Сельдь нежирная свежая	19,1	6,5		135,00	4,1
Свинина вырезка	19,4	7,1		142,00	3,3
Оленина 1 категории	19,5	8,5		155,00	3,3
Индейки 1 категории	19,5	22,00		276,00	3,3
Телятина 1 категории	19,7	2,00		97,00	3,1
Картофель	2,00	0,40	18,1	80,00	2,00
Картофель сладкий (батат)	2,00		14,6	61,00	3,00
Лук-порей	2,00		8,2	33,00	2,3
Ежевика	2,00		6,4	31,00	2,3
Икра из кабачков	2,00	9,00	9,4	122,00	2,4
Шпинат-пюре	2,00	0,10	2,5	16,00	2,5
Молоко обезжиренное	2,00	0,05	4,8	31,00	1,5
Кумыс из кобыльего молока	2,05	1,00	5,00	48,00	2,00
Кукуруза целыми зернами	2,2	0,40	9,8	58,00	3,3
Опята свежие	2,2	1,2	2,8	17,00	2,3
Конфеты помадные	2,2	4,6	83,60	369,00	2,00
Груша	2,3	0,00	62,10	201,00	3,00
Чернослив	2,3	0,00	65,60	242,00	3,00
Картофель молодой	2,4	0,40	12,4	61,00	2,00
Черемша	2,4	0,10	7,1	36,00	3,1
Маслята свежие	2,4	0,70	1,7	9,00	2,3
Сметана 30% жирности	2,4	30,00	3,1	294,00	2,5
Сметана 40% жирности	2,4	40,00	2,6	381,00	3,00
Майонез столовый молочный	2,4	67,00	3,9	627,00	3,2
Капуста цветная	2,5	0,30	5,4	30,00	2,2
Укроп	2,5	0,50	7,6	31,00	3,1
Хрен	2,5	0,40	10,4	44,00	3,4
Финики	2,5	0,00	72,10	271,00	2,00
Соус томатный острый	2,5	0,00	22,4	98,00	2,5
Сливки 35% жирности	2,5	35,00	3,00	337,00	3,00
Масло бутербродное	2,5	61,50	1,7	566,00	3,2
Конфеты молочные	2,7	4,3	82,30	364,00	2,00
Капуста кольраби	2,8		10,7	42,00	3,00
Молоко коровье (паст,)	2,8	3,2	4,7	58,00	2,00
Сливки 20% жирности	2,8	20,00	3,7	206,00	2,4
Сливки взбитые плодовые	2,8	27,00	23,6	344,00	2,4
Сливки взбитые с шоколадом	2,8	27,00	21,6	337,00	3,00
Сметана 20% жирности	2,8	20,00	3,2	206,00	2,4
Ацидофилин	2,8	3,2	3,8	57,00	2,00
Кефир жирный	2,8	3,2	4,1	56,00	2,00
Простокваша	2,8	3,2	4,1	58,00	1,4
Простокваша Мечниковская	2,8	6,00	4,00	83,00	1,5
Шпинат	2,9	0,30	2,5	22,00	3,00
Молоко коровье (стерил,)	2,9	4,7	4,7	61,00	2,00
Белые сушеные	20,1	4,8	27,6	150,00	2,3
Говяжья вырезка	20,2	2,8		106,00	3,3
Говяжья тазобедренная часть	20,4	2,5		104,00	3,3
Печень куриная	20,4	5,9	1,4	140,00	3,2
Балык осетровый холодного копчения	20,4	12,5		194,00	4,3
Сайра мелкая	20,4	7,00		143,00	3,1
Горох сухой	20,5	2,00	53,30	298,00	3,3
Завтрак туриста (говядина)	20,5	10,4		196,00	3,3
Мясо поросят	20,6	3,00		109,00	3,1
Подсолнечник (семена)	20,7	52,90	3,4	578,00	2,3
"Консервы ""Треска в масле"""	20,7	22,9		289,00	3,3
"Консервы натуральные ""Горбуша"""	20,9	5,8		136,00	3,00
Мясо кролика	21,1	11,00		183,00	3,1
Окорочек куриный	21,3	11,00	0,10	185,00	3,2
Килька горячего копчения	21,3	8,5		162,00	3,1
Лещ морской	21,3	6,4		143,00	3,1
Балык осетровый вяленый	21,6	10,1		177,00	4,3
Горбуша солёная	22,1	9,00		169,00	4,00
Ветчина из свинины в форме	22,6	20,9		279,00	4,00
Треска солёная	23,1	0,60		98,00	4,00
Курица в собственном соку	23,2	9,9	0,40	184,00	3,2
Свиные ножки	23,5	15,6		234,00	4,00
Окунь морской гор, копчения	23,5	9,00		175,00	4,3
Филе куриное	23,6	1,9	0,40	113,00	3,2
Какао-порошок	24,2	17,5	33,40	380,00	2,00
Тунец	24,4	4,3		136,00	3,1
Говядина в собственном соку	24,5	16,6		247,00	3,3
Мясо ластоногих	24,5	1,54		113,00	3,1
Лещ каспийский солёный	25,2	4,8		144,00	4,00
Охотничьи колбаски п/копчёные	25,7	40,00		463,00	4,00
Арахис	26,3	45,20	9,9	551,00	3,1
Окунь холодного копчения(балычок)	26,4	10,4		199,00	4,3
Лещ холодного копчения	26,7	4,6		160,00	4,3
Икра минтаевая пробойная	28,4	1,9		131,00	2,3
Икра осетровая зернистая	28,9	9,7		203,00	2,3
Курага	3,00	0,00	68,50	227,00	2,4
Фасоль (стручок)	3,00	0,30	4,3	31,00	2,3
Молоко козье (сырое)	3,00	4,2	4,5	68,00	1,4
Молоко топленое	3,00	6,00	4,7	84,00	2,00
Сливки 10% жирности	3,00	10,00	4,00	118,00	2,3
Сметана 10% жирности	3,00	10,00	2,9	115,00	2,3
Кефир нежирный	3,00	0,05	3,8	30,00	1,4
Кумыс из коровьего молока	3,00	0,05	6,3	40,00	2,00
Ряженка 6% жирности	3,00	6,00	4,1	84,00	2,00
Пломбир крем-брюле	3,00	15,00	23,00	235,00	2,4
Зелёный горошек	3,1	0,20	7,3	40,00	3,00
"Майонез ""Провансаль"""	3,1	67,00	2,6	624,00	3,2
Яблоки	3,2	0,00	68,00	199,00	2,4
Вафли с фруктовой начинкой	3,2	2,8	80,90	350,00	2,3
Молоко коровье (сырое)	3,2	3,6	4,8	64,00	1,3
Мороженое молочное	3,2	3,5	21,3	126,00	2,3
Пломбир	3,2	15,00	20,8	227,00	2,4
Подосиновики свежие	3,3	0,50	3,7	22,00	2,3
Батончики на кондитерском жире	3,3	30,5	63,90	523,00	2,00
Ирис полутвердый	3,3	7,5	81,80	395,00	2,00
Пахта пастеризованная	3,3	1,00	4,7	40,00	2,1
Пахта сквашенная	3,3	1,00	3,8	39,00	1,5
Мороженое сливочное	3,3	10,00	19,8	179,00	2,3
Шиповник сухой	3,4	0,00	60,00	221,00	3,4
Вафли с жирной начинкой	3,4	30,20	64,70	539,00	3,00
Эскимо	3,5	20,00	19,6	270,00	2,4
Сливочное шоколадное	3,5	10,00	21,5	188,00	2,4
Молочное крем-брюле	3,5	3,5	23,1	134,00	2,3
Сливочное крем-брюле	3,5	10,00	21,6	186,00	2,4
Томат-пюре	3,6	0,00	12,6	65,00	2,2
Пломбир шоколадный	3,6	15,00	22,3	236,00	2,4
Петрушка	3,7	0,40	9,5	49,00	3,00
Белые свежие	3,7	1,7	3,4	30,00	2,3
Драже фруктовое в шоколаде	3,7	10,2	76,30	389,00	2,3
Молочное клубничное	3,8	2,8	22,2	123,00	2,3
Сливочное клубничное	3,8	8,00	20,9	165,00	2,3
Вобла холодного копчения	31,1	6,3		181,00	4,3
Агар пищевой	4,00	0,00	76,00	16,00	1,3
Конфеты шоколадные	4,00	39,50	54,20	569,00	2,00
Молочное шоколадное	4,2	3,5	23,00	138,00	2,3
"Консервы ""Печень трески"""	4,2	65,70	1,2	613,00	3,00
Шампиньоны свежие	4,3	1,00	1,00	27,00	2,3
Торт с фруктовой начинкой	4,7	20,00	49,80	391,00	3,3
Капуста брюссельская	4,8		8,00	43,00	4,00
Томатная паста	4,8	0,00	20,1	99,00	2,2
Пряники заварные	4,8	2,8	77,70	350,00	2,4
Агар из фурцеллярии	4,8	0,00	61,20	16,00	1,3
Урюк	5,00	0,00	67,50	227,00	2,4
Горошек зелёный	5,00	0,20	13,8	73,00	2,4
Торт слоёный с кремом	5,00	37,40	44,00	533,00	4,00
Йогурт	5,00	3,2	3,8	66,00	2,00
Йогурт сладкий	5,00	3,2	8,5	85,00	2,2
Пирожное фруктовое	5,1	18,5	63,40	435,00	3,3
Курага	5,2	0,00	65,90	234,00	2,4
Пломбир ореховый	5,2	18,00	19,9	259,00	2,5
Конфеты грильяжные	5,3	26,9	65,60	523,00	2,00
Шоколад без добавлений	5,4	35,30	56,50	544,00	2,00
Пирожное слоёное с кремом	5,4	38,60	46,40	555,00	4,00
Молочное ореховое	5,4	6,5	20,1	157,00	2,4
Паста ацидофильная нежирная	5,5	0,20	12,5	74,00	2,4
Сливочное ореховое	5,5	13,00	18,6	210,00	2,5
Картофельное пюре (хлопья)	5,6	0,20	84,60	350,00	3,00
Хлеб пеклеванный	5,9	1,1	47,10	227,00	3,3
Пирожное трубочка с кремом	5,9	10,2	55,20	329,00	4,00
Бобы зелёные	6,00	0,10	10,5	60,00	2,4
Пирожное крошковое	6,1	23,8	51,60	438,00	3,00
Чеснок	6,5		6,00	46,00	2,4
Картофель	6,6	0,30	76,20	331,00	3,00
Хлеб ржаной формовой	6,6	1,2	41,80	181,00	3,3
Шоколад с орехами	6,6	40,90	49,90	580,00	2,3
Паста ацидофильная сладкая	6,6	8,00	25,5	198,00	2,5
Хлеб бородинский	6,8	1,3	41,80	207,00	3,3
Мука ржаная сеяная	6,9	1,4	67,30	304,00	3,2
Шоколад молочный	6,9	35,70	54,40	550,00	2,00
Рисовая	7,00	1,00	77,30	330,00	3,00
Хлеб ржано-пшеничный	7,00	1,1	40,30	189,00	3,3
Печенье миндальное	7,00	22,7	64,70	486,00	2,4
Молоко сгущеное (стерил,)	7,00	8,3	9,5	140,00	3,00
Сырки масса творожная	7,1	23,00	27,5	341,00	2,5
Мука кукурузная	7,2	1,5	70,90	330,00	3,2
Молоко сгущеное (с сахаром)	7,2	8,5	56,00	320,00	4,00
Рис	7,5	2,6	63,10	283,00	3,00
Сдоба выборгская с маком	7,5	4,2	59,80	304,00	2,5
Печенье сахарное в/с	7,5	11,8	74,40	436,00	2,4
Конфеты кремовые	7,5	31,8	55,80	523,00	2,00
Хлеб пшеничный, 1 сорт	7,6	0,90	50,10	231,00	3,1
Плюшка московская	7,6	8,9	56,00	336,00	2,5
Батон нарезной 1 сорт	7,7	3,00	53,30	235,00	2,5
Булка городская	7,7	2,4	52,20	266,00	2,5
Лепешка ржаная	7,7	17,7	44,70	367,00	2,5
Морковь	7,8	0,60	56,40	226,00	3,00
Сельдерей (корень)	7,8	2,00	43,60	191,00	3,00
Рожки обсыпные	7,8	5,6	57,30	314,00	2,5
Калач московский	7,9	0,80	51,10	249,00	2,5
Булочка сдобная	7,9	9,4	54,90	337,00	2,5
Чебурек	8,00	1,00	49,30	243,00	3,1
Сливки сгущ, с сахаром	8,00	19,00	47,00	382,00	4,00
Свинина грудинка	8,00	63,30		602,00	4,3
Хлеб пшеничный зерновой	8,1	1,4	45,60	231,00	3,1
Бублики с маком	8,1	6,2	56,20	316,00	2,3
Какао со сгущ, молоком	8,2	7,5	54,90	309,00	4,00
Кукурузная	8,3	1,2	75,00	337,00	2,3
Хлеб паляница	8,3	1,00	49,90	247,00	3,1
Баранки сдобные	8,3	8,00	59,80	349,00	2,3
Лук репчатый	8,4	2,8	46,80	208,00	3,00
Кофе со сгущ, молоком	8,4	8,6	53,00	312,00	4,00
Сухари сливочные в/с	8,5	10,8	69,60	398,00	2,3
Пирожное миндальное	8,5	16,2	66,20	431,00	3,00
Сырки глазированные	8,5	27,8	32,00	407,00	3,00
Сушки ванильные	8,7	5,6	71,60	377,00	2,3
Мука ржаная обдирная	8,9	1,7	61,40	298,00	3,2
Грудинка свиная сырокопченая	8,9	63,30		605,00	4,3
Свекла	9,00	0,60	62,00	257,00	3,00
Бублики простые	9,00	1,1	57,80	284,00	2,3
Сосиски любительские	9,00	29,5	0,70	226,00	3,00
Лаваш	9,1	1,1	56,20	277,00	3,1
Сырки творожные детские	9,1	23,00	18,5	315,00	2,4
Мидии	9,1	1,5		50,00	2,1
Крекеры из муки в/с	9,2	14,1	66,20	439,00	2,3
Сушки горчичные	9,2	8,00	66,40	379,00	2,3
Перловая	9,3	1,1	73,70	320,00	3,00
Гречневая (продел)	9,5	1,9	72,20	329,00	2,3
Галеты из муки в/с	9,7	10,2	68,50	415,00	2,3
Соломка сладкая	9,7	6,00	69,40	373,00	2,3
Рожь	9,9	2,2	70,90	287,00	3,3
Колбаса сырокопченая зернистая	9,9	63,20		608,00	4,2
Патока кукурузная		0,30	88,30	311,00	
Карамель леденцовая		0,10	95,00	370,00	2,00
Карамель с ликёром		0,10	92,60	358,00	2,1
Сельдерей			3,00		3,1
Пектин			89,60	42,00	
Масло крестьянское солёное		0,80	71,00	647,00	3,3
Лимонад цитрусовый		0,00	7,5	31,00	1,00
Лимонад плодовоягодный		0,00	9,5	40,00	1,00
